…
Vandebron is a greentech innovator leading the renewable energy transition with innovative solutions through engineering and data.

With more than 250 local sustainable energy sources spread throughout the Netherlands and with more than 200,000 connected households, we are well on the way to achieve our mission. At Vandebron we do things different. It is not just about dreams: we really want to bring change. We want to bring change by making the world more sustainable and we are all working hard to achieve that.

In this challenge you will help to develop our Electric Vehicles (EV) pool management. 

Given a sample of EV charging sessions, the objective is to model when and for how long the EVs in our portfolio charge from the grid. 

**Technology:**

You will use data from 480K of our sessions, in the format:

```
## # A tibble: 500,000 x 3
##    timestamp_start timestamp_end kwh_charged
##              <dbl>         <dbl>       <dbl>
##  1      1556810759    1556871505       16.2 
##  2      1558384073    1558424769        5.98
##  3      1556819294    1556869701       15.9 
##  4      1557690414    1557728057        7.65
##  5      1558284907    1558292351        5.08
##  6      1557625723    1557669341        8.09
##  7      1558434015    1558439977        2.46
##  8      1558379303    1558413870       54.8 
##  9      1557310543    1557329550       17.8 
## 10      1557485279    1557671652        7.74
## # … with 499,990 more rows
```
…
